{
  "total": 150,
  "per_page": 25,
  "current_page": 1,
  "last_page": 6,
  "from": 1,
  "to": 25,
  "data": [
    {
      "exchange": "NYSE",
      "symbol": "FAKE1",
      "company": "Fake Company One Inc",
      "insider_buy_count": 45,
      "insider_buy_count_unique": 8,
      "buy_total_shares": 125000,
      "buy_price_avg": 52.50,
      "buy_price_value": 6562500.00,
      "buy_change_from_average": 15.25,
      "buy_company_held_shares": 4.5
    },
    {
      "exchange": "NAS",
      "symbol": "FAKE2",
      "company": "Fake Tech Solutions",
      "insider_buy_count": 32,
      "insider_buy_count_unique": 5,
      "buy_total_shares": 85000,
      "buy_price_avg": 128.75,
      "buy_price_value": 10943750.00,
      "buy_change_from_average": 22.50,
      "buy_company_held_shares": 2.8
    },
    {
      "exchange": "AMEX",
      "symbol": "FAKE6",
      "company": "Fake Mining Corp",
      "insider_buy_count": 28,
      "insider_buy_count_unique": 4,
      "buy_total_shares": 200000,
      "buy_price_avg": 8.25,
      "buy_price_value": 1650000.00,
      "buy_change_from_average": -5.50,
      "buy_company_held_shares": 12.5
    }
  ]
}
