{
  "count": 300,
  "currentPage": 1,
  "lastPage": 5,
  "total": 1250,
  "data": [
    {
      "symbol": "AAPL",
      "company": "Fake Apple Corp",
      "exchange": "NAS",
      "industry": 31110030,
      "class": "Common Stock",
      "stockid": "FAKE01",
      "option_type": "",
      "strike_price": "",
      "trans_type": "purchase",
      "amount": "$15,001 - $50,000",
      "disclosure_date": "2025-12-19",
      "transaction_date": "2025-12-16",
      "expiration_date": "",
      "id": 1,
      "full_name": "Jane Smith",
      "official_full": "Jane Marie Smith",
      "position": "senator",
      "state": "CA",
      "party": "Democrat"
    },
    {
      "symbol": "MSFT",
      "company": "Fake Microsoft Corp",
      "exchange": "NAS",
      "industry": 31110030,
      "class": "Common Stock",
      "stockid": "FAKE02",
      "option_type": "",
      "strike_price": "",
      "trans_type": "sale_full",
      "amount": "$50,001 - $100,000",
      "disclosure_date": "2025-12-18",
      "transaction_date": "2025-12-15",
      "expiration_date": "",
      "id": 2,
      "full_name": "John Doe",
      "official_full": "John H. Doe",
      "position": "senator",
      "state": "TX",
      "party": "Republican"
    },
    {
      "symbol": "GOOGL",
      "company": "Fake Alphabet Inc",
      "exchange": "NAS",
      "industry": 30830010,
      "class": "Common Stock",
      "stockid": "FAKE03",
      "option_type": "",
      "strike_price": "",
      "trans_type": "purchase",
      "amount": "$100,001 - $250,000",
      "disclosure_date": "2025-12-17",
      "transaction_date": "2025-12-14",
      "expiration_date": "",
      "id": 3,
      "full_name": "Mary Johnson",
      "official_full": "Mary L. Johnson",
      "position": "representative",
      "state": "NY",
      "party": "Democrat"
    },
    {
      "symbol": "NVDA",
      "company": "Fake NVIDIA Corp",
      "exchange": "NAS",
      "industry": 31130020,
      "class": "Common Stock",
      "stockid": "FAKE04",
      "option_type": "call",
      "strike_price": "$150",
      "trans_type": "exchange",
      "amount": "$250,001 - $500,000",
      "disclosure_date": "2025-12-16",
      "transaction_date": "2025-12-13",
      "expiration_date": "2026-01-15",
      "id": 4,
      "full_name": "Robert Williams",
      "official_full": "Robert K. Williams",
      "position": "representative",
      "state": "FL",
      "party": "Republican"
    },
    {
      "symbol": "TSLA",
      "company": "Fake Tesla Inc",
      "exchange": "NAS",
      "industry": 10200010,
      "class": "Common Stock",
      "stockid": "FAKE05",
      "option_type": "",
      "strike_price": "",
      "trans_type": "sale_partial",
      "amount": "$1,001 - $15,000",
      "disclosure_date": "2025-12-15",
      "transaction_date": "2025-12-12",
      "expiration_date": "",
      "id": 5,
      "full_name": "Sarah Brown",
      "official_full": "Sarah T. Brown",
      "position": "senator",
      "state": "WA",
      "party": "Independent"
    }
  ]
}
