{
  "count": 300,
  "currentPage": 2,
  "lastPage": 5,
  "total": 1250,
  "data": [
    {
      "symbol": "AMZN",
      "company": "Fake Amazon Corp",
      "exchange": "NAS",
      "industry": 10280020,
      "class": "Common Stock",
      "stockid": "FAKE06",
      "option_type": "",
      "strike_price": "",
      "trans_type": "purchase",
      "amount": "$15,001 - $50,000",
      "disclosure_date": "2025-12-14",
      "transaction_date": "2025-12-11",
      "expiration_date": "",
      "id": 1,
      "full_name": "Jane Smith",
      "official_full": "Jane Marie Smith",
      "position": "senator",
      "state": "CA",
      "party": "Democrat"
    },
    {
      "symbol": "META",
      "company": "Fake Meta Platforms",
      "exchange": "NAS",
      "industry": 30830010,
      "class": "Common Stock",
      "stockid": "FAKE07",
      "option_type": "",
      "strike_price": "",
      "trans_type": "sale_full",
      "amount": "$1,001 - $15,000",
      "disclosure_date": "2025-12-13",
      "transaction_date": "2025-12-10",
      "expiration_date": "",
      "id": 3,
      "full_name": "Mary Johnson",
      "official_full": "Mary L. Johnson",
      "position": "representative",
      "state": "NY",
      "party": "Democrat"
    }
  ]
}
