{
  "data": [
    {
      "currency": "USD",
      "company": "FakeAlpha Corp",
      "action": "Add",
      "portdate": "2025-01-15",
      "impact": 1.25,
      "price": 125.50,
      "price_avg": 118.75,
      "change": 5.68,
      "comment": "Add 5.5%",
      "shares": 1578000,
      "guru_name": "Fake Guru One",
      "symbol": "FAKEA",
      "exchange": "NYSE"
    },
    {
      "currency": "USD",
      "company": "FakeBeta Health Inc",
      "action": "Reduce",
      "portdate": "2025-01-14",
      "impact": -0.55,
      "price": 78.25,
      "price_avg": 82.50,
      "change": -5.15,
      "comment": "Reduce -2.3%",
      "shares": 2441250,
      "guru_name": "Fake Guru Two",
      "symbol": "FAKEB",
      "exchange": "NAS"
    },
    {
      "currency": "USD",
      "company": "FakeGamma Financial",
      "action": "Buy",
      "portdate": "2025-01-13",
      "impact": 18.50,
      "price": 245.00,
      "price_avg": 238.25,
      "change": 2.83,
      "comment": "New holding",
      "shares": 800000,
      "guru_name": "Fake Guru Three",
      "symbol": "FAKEC",
      "exchange": "NYSE"
    },
    {
      "currency": "USD",
      "company": "FakeDelta Products",
      "action": "Sell",
      "portdate": "2025-01-12",
      "impact": -8.25,
      "price": 55.75,
      "price_avg": 58.50,
      "change": -4.70,
      "comment": "Sold Out",
      "shares": 0,
      "guru_name": "Fake Guru Four",
      "symbol": "FAKED",
      "exchange": "NYSE"
    },
    {
      "currency": "USD",
      "company": "FakeEpsilon Tech",
      "action": "Add",
      "portdate": "2025-01-11",
      "impact": 0.85,
      "price": 312.75,
      "price_avg": 305.00,
      "change": 2.54,
      "comment": "Add 3.2%",
      "shares": 360850,
      "guru_name": "Fake Guru Five",
      "symbol": "FAKEE",
      "exchange": "NAS"
    }
  ],
  "total": 125,
  "currentPage": "1",
  "lastPage": 7
}
