{
  "current_page": 1,
  "per_page": 50,
  "last_page": 127,
  "total": 6344,
  "data": [
    {"name": "Fake Alpha Growth ETF"},
    {"name": "Fake Beta Value ETF"},
    {"name": "Fake Gamma Income ETF"},
    {"name": "Fake Delta Tech ETF"},
    {"name": "Fake Epsilon Bond ETF"}
  ]
}
