{
  "total": 500,
  "per_page": 25,
  "current_page": 1,
  "last_page": 20,
  "from": 1,
  "to": 25,
  "data": [
    {
      "exchange": "NYSE",
      "symbol": "FAKE1",
      "company": "Fake Company One Inc",
      "name": "John Smith",
      "position": "CEO",
      "date": "2025-12-23",
      "type": "P",
      "trans_share": 15000,
      "shares_change": 5.25,
      "trade_price": 89.50,
      "cost": 1342500,
      "final_share": 300000,
      "change_from_insider_trade": 2.15,
      "file_date": "2025-12-23"
    },
    {
      "exchange": "NAS",
      "symbol": "FAKE2",
      "company": "Fake Tech Solutions",
      "name": "Emily Chen",
      "position": "CEO",
      "date": "2025-12-22",
      "type": "P",
      "trans_share": 8500,
      "shares_change": 3.75,
      "trade_price": 156.00,
      "cost": 1326000,
      "final_share": 235000,
      "change_from_insider_trade": -1.25,
      "file_date": "2025-12-23"
    },
    {
      "exchange": "NYSE",
      "symbol": "FAKE3",
      "company": "Fake Industries Corp",
      "name": "Michael Brown",
      "position": "CEO",
      "date": "2025-12-21",
      "type": "P",
      "trans_share": 25000,
      "shares_change": 8.50,
      "trade_price": 42.75,
      "cost": 1068750,
      "final_share": 320000,
      "change_from_insider_trade": 4.50,
      "file_date": "2025-12-22"
    }
  ]
}
