{
  "total": 75,
  "per_page": 25,
  "current_page": 1,
  "last_page": 3,
  "from": 1,
  "to": 25,
  "data": [
    {
      "exchange": "NYSE",
      "symbol": "FAKE1",
      "company": "Fake Company One Inc",
      "buy_add_count": 5,
      "insider_buy_count": 45,
      "total_buyback_1y": "2.50"
    },
    {
      "exchange": "NAS",
      "symbol": "FAKE2",
      "company": "Fake Tech Solutions",
      "buy_add_count": 4,
      "insider_buy_count": 32,
      "total_buyback_1y": "-1.25"
    },
    {
      "exchange": "AMEX",
      "symbol": "FAKE8",
      "company": "Fake Energy Corp",
      "buy_add_count": 3,
      "insider_buy_count": 22,
      "total_buyback_1y": "0.00"
    }
  ]
}
