{
  "total": 100,
  "per_page": 25,
  "current_page": 1,
  "last_page": 4,
  "from": 1,
  "to": 25,
  "data": [
    {
      "exchange": "NYSE",
      "symbol": "FAKE1",
      "company": "Fake Company One Inc",
      "buy_add_count": 3,
      "insider_buy_count": 45,
      "insider_buy_shares": 125000
    },
    {
      "exchange": "NAS",
      "symbol": "FAKE2",
      "company": "Fake Tech Solutions",
      "buy_add_count": 2,
      "insider_buy_count": 32,
      "insider_buy_shares": 85000
    },
    {
      "exchange": "NYSE",
      "symbol": "FAKE7",
      "company": "Fake Retail Corp",
      "buy_add_count": 1,
      "insider_buy_count": 18,
      "insider_buy_shares": 45000
    }
  ]
}
