{
  "total": 250,
  "per_page": 25,
  "current_page": 1,
  "last_page": 10,
  "from": 1,
  "to": 25,
  "data": [
    {
      "exchange": "NYSE",
      "symbol": "FAKE4",
      "company": "Fake Financial Corp",
      "name": "Sarah Williams",
      "position": "CFO",
      "date": "2025-12-23",
      "type": "P",
      "trans_share": 5000,
      "shares_change": 12.50,
      "trade_price": 67.25,
      "cost": 336250,
      "final_share": 45000,
      "change_from_insider_trade": 1.85,
      "file_date": "2025-12-23"
    },
    {
      "exchange": "NAS",
      "symbol": "FAKE5",
      "company": "Fake Software Inc",
      "name": "David Lee",
      "position": "CFO",
      "date": "2025-12-22",
      "type": "P",
      "trans_share": 3200,
      "shares_change": 8.00,
      "trade_price": 245.00,
      "cost": 784000,
      "final_share": 43200,
      "change_from_insider_trade": 3.20,
      "file_date": "2025-12-22"
    }
  ]
}
